<?xml version="1.0" encoding="utf-8"?>
<!-- Generator: Adobe Illustrator 19.2.1, SVG Export Plug-In . SVG Version: 6.00 Build 0)  -->
<svg version="1.1" id="Capa_1" xmlns="http://www.w3.org/2000/svg" xmlns:xlink="http://www.w3.org/1999/xlink" x="0px" y="0px"
	 viewBox="0 0 15 15" style="enable-background:new 0 0 15 15;" xml:space="preserve">
<style type="text/css">
	.st0{fill:#3F51B5;}
</style>
<g>
	<path class="st0" d="M7,13.3L7,13.3c-2.9,0-5.3-2.4-5.3-5.3h0l0-0.1V7.1h0c0-2.9,2.4-5.3,5.3-5.3v0l0.1,0h0.8v0
		c2.9,0,5.3,2.4,5.3,5.3h0l0,0.1V8h0c0,2.9-2.4,5.3-5.3,5.3v0l-0.1,0H7z M5.3,10.3c0.4,1.1,1,1.8,1.7,2c0,0,0,0,0,0v-2c0,0,0,0,0,0
		L5.3,10.3C5.4,10.3,5.3,10.3,5.3,10.3z M7.9,12.3c0.7-0.2,1.3-1,1.7-2c0,0,0,0,0,0H7.9c0,0,0,0,0,0L7.9,12.3
		C7.9,12.3,7.9,12.3,7.9,12.3z M10.6,10.3c-0.2,0.6-0.4,1.1-0.7,1.5c0.7-0.4,1.2-0.9,1.6-1.5H10.6z M3.5,10.3c0.4,0.6,1,1.1,1.6,1.5
		c-0.3-0.4-0.5-0.9-0.7-1.5H3.5z M12,9.3c0.2-0.4,0.3-0.9,0.3-1.4c0,0,0,0,0,0H11c0,0,0,0,0,0c0,0.5-0.1,0.9-0.2,1.4c0,0,0,0,0,0
		L12,9.3C12,9.3,12,9.3,12,9.3z M9.9,9.3C10,8.9,10,8.5,10,8c0,0,0,0,0,0H7.9c0,0,0,0,0,0v1.4c0,0,0,0,0,0L9.9,9.3
		C9.9,9.3,9.9,9.3,9.9,9.3z M7,9.3V8c0,0,0,0,0,0H4.9c0,0,0,0,0,0c0,0.5,0.1,0.9,0.2,1.4c0,0,0,0,0,0L7,9.3C7,9.3,7,9.3,7,9.3z
		 M4.2,9.3C4.1,8.9,4,8.4,4,8c0,0,0,0,0,0H2.6c0,0,0,0,0,0c0,0.5,0.2,0.9,0.3,1.4c0,0,0,0,0,0L4.2,9.3C4.2,9.3,4.2,9.3,4.2,9.3z
		 M12.3,7.1c0-0.5-0.2-0.9-0.3-1.4c0,0,0,0,0,0h-1.2c0,0,0,0,0,0c0.1,0.4,0.1,0.9,0.2,1.4c0,0,0,0,0,0L12.3,7.1
		C12.3,7.1,12.3,7.1,12.3,7.1z M10,7.1c0-0.5-0.1-0.9-0.2-1.4c0,0,0,0,0,0H7.9c0,0,0,0,0,0v1.4c0,0,0,0,0,0L10,7.1
		C10,7.1,10,7.1,10,7.1z M7,7.1V5.7c0,0,0,0,0,0H5.1c0,0,0,0,0,0C5,6.1,4.9,6.6,4.9,7.1c0,0,0,0,0,0L7,7.1C7,7.1,7,7.1,7,7.1z
		 M4,7.1c0-0.5,0.1-0.9,0.2-1.4c0,0,0,0,0,0H3c0,0,0,0,0,0C2.8,6.1,2.7,6.6,2.6,7.1c0,0,0,0,0,0L4,7.1C4,7.1,4,7.1,4,7.1z M11.5,4.8
		c-0.4-0.6-1-1.1-1.6-1.5c0.3,0.4,0.5,0.9,0.7,1.5H11.5z M9.6,4.8c-0.4-1.1-1-1.8-1.7-2c0,0,0,0,0,0v2c0,0,0,0,0,0L9.6,4.8
		C9.6,4.8,9.6,4.8,9.6,4.8z M7,4.8v-2c0,0,0,0,0,0c-0.7,0.2-1.3,1-1.7,2c0,0,0,0,0,0L7,4.8C7,4.8,7,4.8,7,4.8z M4.4,4.8
		c0.2-0.6,0.4-1.1,0.7-1.5C4.5,3.7,3.9,4.2,3.5,4.8H4.4z"/>
</g>
</svg>
