<?xml version="1.0" encoding="utf-8"?>
<!-- Generator: Adobe Illustrator 19.2.1, SVG Export Plug-In . SVG Version: 6.00 Build 0)  -->
<svg version="1.1" id="Capa_1" xmlns="http://www.w3.org/2000/svg" xmlns:xlink="http://www.w3.org/1999/xlink" x="0px" y="0px"
	 viewBox="0 0 512 512" style="enable-background:new 0 0 512 512;" xml:space="preserve">
<style type="text/css">
	.st0{fill:#3BB885;}
	.st1{clip-path:url(#SVGID_2_);fill:#3BB885;}
</style>
<g>
	<g>
		<path class="st0" d="M496.1,252.4c9.8-10.6,14.8-25.5,12.1-40.8s-12.4-27.7-25.3-34.2c-2.5-1.3-3.6-4.2-2.5-6.8
			c5.6-13.3,5.1-29-2.6-42.5s-21.1-21.7-35.5-23.5c-2.8-0.3-4.8-2.7-4.7-5.5c0.7-14.4-5.1-29-17-39c-11.9-10-27.3-13.2-41.4-10
			c-2.7,0.6-5.4-0.9-6.3-3.6c-4.3-13.8-14.7-25.5-29.3-30.9c-14.6-5.3-30.2-3.1-42.3,4.8c-2.4,1.5-5.4,1-7.1-1.3
			C285.4,7.4,271.6,0,256,0s-29.4,7.4-38.1,19c-1.7,2.2-4.8,2.8-7.1,1.3c-12.1-7.8-27.7-10.1-42.3-4.8s-25.1,17-29.3,30.9
			c-0.8,2.7-3.5,4.2-6.3,3.6c-14.1-3.2-29.5,0-41.4,10s-17.7,24.6-17,39c0.1,2.8-1.9,5.2-4.7,5.5c-14.3,1.8-27.7,10-35.5,23.5
			c-7.8,13.5-8.2,29.2-2.6,42.5c1.1,2.6,0,5.5-2.5,6.8c-12.9,6.6-22.6,18.9-25.3,34.2c-2.7,15.3,2.2,30.2,12.1,40.8
			c1.9,2.1,1.9,5.2,0,7.2c-9.8,10.6-14.8,25.5-12.1,40.8s12.4,27.7,25.3,34.2c2.5,1.3,3.6,4.2,2.5,6.8c-5.6,13.3-5.1,29,2.6,42.5
			s21.1,21.7,35.5,23.5c2.8,0.3,4.8,2.7,4.7,5.5c-0.7,14.4,5.1,29,17,39s27.3,13.2,41.4,10c2.7-0.6,5.4,0.9,6.3,3.6
			c4.3,13.8,14.7,25.5,29.3,30.9c14.6,5.3,30.2,3.1,42.3-4.8c2.4-1.5,5.4-1,7.1,1.3c8.7,11.5,22.6,19,38.1,19s29.4-7.4,38.1-19
			c1.7-2.2,4.8-2.8,7.1-1.3c12.1,7.8,27.7,10.1,42.3,4.8c14.6-5.3,25.1-17,29.3-30.9c0.8-2.7,3.5-4.2,6.3-3.6
			c14.1,3.2,29.5,0,41.4-10s17.7-24.6,17-39c-0.1-2.8,1.9-5.2,4.7-5.5c14.3-1.8,27.7-10,35.5-23.5c7.8-13.5,8.2-29.2,2.6-42.5
			c-1.1-2.6,0-5.5,2.5-6.8c12.9-6.6,22.6-18.9,25.3-34.2c2.7-15.3-2.2-30.2-12.1-40.8C494.1,257.6,494.1,254.4,496.1,252.4z
			 M256,446c-104.9,0-190-85.1-190-190S151.1,66,256,66s190,85.1,190,190S360.9,446,256,446z"/>
	</g>
</g>
<g>
	<defs>
		<rect id="SVGID_1_" x="128" y="190" width="258" height="173.8"/>
	</defs>
	<clipPath id="SVGID_2_">
		<use xlink:href="#SVGID_1_"  style="overflow:visible;"/>
	</clipPath>
	<path class="st1" d="M253.1,322.7l-84-87.2c-9.4-9.4-24.6-9.4-34,0c-9.4,9.4-9.4,24.6,0,34l84,87.2c9.4,9.4,24.6,9.4,34,0
		C262.5,347.3,262.5,332.1,253.1,322.7"/>
	<path class="st1" d="M344.9,197L219.2,322.7c-9.4,9.4-9.4,24.6,0,34c9.4,9.4,24.6,9.4,34,0L379,231c9.4-9.4,9.4-24.6,0-34
		C369.6,187.6,354.3,187.6,344.9,197"/>
</g>
</svg>
