<?xml version="1.0" encoding="utf-8"?>
<!-- Generator: Adobe Illustrator 19.2.1, SVG Export Plug-In . SVG Version: 6.00 Build 0)  -->
<svg version="1.1" id="Capa_1" xmlns="http://www.w3.org/2000/svg" xmlns:xlink="http://www.w3.org/1999/xlink" x="0px" y="0px"
	 viewBox="0 0 475.1 475.1" style="enable-background:new 0 0 475.1 475.1;" xml:space="preserve">
<style type="text/css">
	.st0{fill:#707070;}
</style>
<g>
	<path class="st0" d="M32.3,209.6c-9.3,14.1-14,29.6-14,46.5c0,19.6,7.2,36.6,21.7,51.1c14.5,14.5,31.6,21.7,51.4,21.7h50.3
		c-9.1,18.8-13.7,37.1-13.7,54.8c0,22.3,3.3,40,10,53.1c6.7,13.1,16.4,22.8,29.1,29c12.8,6.2,27.1,9.3,43.1,9.3
		c9.7,0,18.3-3.5,25.7-10.6c8.2-8,14.1-18.3,17.7-30.8c3.6-12.6,6.5-24.6,8.7-36.1c2.2-11.5,5.6-19.7,10.1-24.4
		c9.3-10.1,19.5-22.3,30.6-36.5c19.2-24.9,32.3-39.7,39.1-44.3h78.2c10.1,0,18.7-3.6,25.8-10.7c7.1-7.1,10.7-15.8,10.7-25.8V73.1
		c0-10.1-3.6-18.7-10.7-25.8c-7.1-7.1-15.8-10.7-25.8-10.7H338c-4.2,0-17.3-3.8-39.4-11.4c-23.4-8.2-44-14.4-61.8-18.7
		C219,2.1,201,0,182.7,0l-26.5,0l-10.3,0c-26.8,0-48.4,7.7-64.8,23C64.7,38.3,56.6,59.2,56.8,85.7c-11.4,14.7-17.1,31.6-17.1,50.8
		c0,4.2,0.3,8.3,0.9,12.3c-7.2,12.7-10.9,26.5-10.9,41.1C29.7,196.7,30.6,203.3,32.3,209.6z M389.1,78.5c3.6-3.6,7.9-5.4,12.8-5.4
		c5,0,9.2,1.8,12.9,5.4c3.6,3.6,5.4,7.9,5.4,12.9c0,4.9-1.8,9.2-5.4,12.8c-3.6,3.6-7.9,5.4-12.9,5.4c-4.9,0-9.2-1.8-12.8-5.4
		c-3.6-3.6-5.4-7.9-5.4-12.8C383.7,86.4,385.5,82.1,389.1,78.5z M61,232.7c4.1-8.8,9.2-13.2,15.3-13.4c-2.9-3.2-5.2-7.8-7.1-13.6
		c-1.9-5.8-2.8-11.1-2.8-15.8c0-13.1,5-24.5,15.1-34c-3.4-6.1-5.1-12.7-5.1-19.7c0-7,1.7-14,5-21c3.3-6.9,7.9-11.9,13.6-15
		c-1-5.7-1.4-11-1.4-16c0-31.8,18.3-47.7,54.8-47.7h34.5c24.9,0,57.5,6.9,97.6,20.8c1,0.4,3.7,1.4,8.3,3c4.6,1.6,7.9,2.8,10.1,3.6
		c2.2,0.8,5.5,1.9,10,3.3c4.5,1.4,8.1,2.5,10.8,3.1c2.8,0.7,5.9,1.3,9.4,1.9c3.5,0.6,6.5,0.9,9,0.9h9.1v182.7H338
		c-3,0-6.4,0.9-10.1,2.6c-3.7,1.7-7.5,4.3-11.4,7.7c-3.9,3.4-7.6,6.8-11,10.1c-3.4,3.3-7.2,7.5-11.4,12.6c-4.2,5-7.5,9.1-9.9,12.1
		c-2.4,3-5.4,6.9-9,11.7c-3.6,4.8-5.8,7.6-6.6,8.6c-10.5,12.9-17.8,21.6-22,26c-7.8,8.2-13.5,18.6-17,31.3
		c-3.5,12.7-6.4,24.6-8.7,35.8c-2.3,11.2-5.9,19.3-10.9,24.3c-18.3,0-30.5-4.5-36.5-13.4c-6.1-8.9-9.1-22.7-9.1-41.4
		c0-11.2,4.6-26.5,13.7-45.8c9.1-19.3,13.7-34.5,13.7-45.5H91.4c-9.5,0-18-3.7-25.4-11c-7.4-7.3-11.1-15.8-11.1-25.6
		C54.8,249.2,56.9,241.4,61,232.7z"/>
</g>
</svg>
