<?xml version="1.0" encoding="utf-8"?>
<!-- Generator: Adobe Illustrator 22.0.1, SVG Export Plug-In . SVG Version: 6.00 Build 0)  -->
<svg version="1.1" id="Layer_1" xmlns="http://www.w3.org/2000/svg" xmlns:xlink="http://www.w3.org/1999/xlink" x="0px" y="0px"
	 viewBox="-48.6 201.2 451.9 453.1" style="enable-background:new -48.6 201.2 451.9 453.1;" xml:space="preserve">
<style type="text/css">
	.st0{fill:#CCCCCC;}
	.st1{fill:#518EF8;}
	.st2{fill:#28B446;}
	.st3{fill:#F2F2F2;}
	.st4{fill:#FFD837;}
	.st5{fill:#FFFFFF;}
</style>
<path class="st0" d="M402.8,380.5v217.7l-68.4-12.7l-30.2-36.2L177.2,408.1l107.9-76.6c54,71.3,55.7,53.9,55.7,53.9
	s26.7-39.9,60.9-5.6L402.8,380.5z"/>
<path class="st0" d="M403.4,456.6V238.9L335,251.6l-30.2,36.2L177.8,429l107.9,76.6c54-71.3,55.7-53.9,55.7-53.9s26.7,39.9,60.9,5.6
	L403.4,456.6z"/>
<path class="st1" d="M141.7,364.1L366,652.8c-1.3,0.1-2.6,0.2-4,0.2H-4.7L141.7,364.1z"/>
<path class="st2" d="M285.1,331.5L-48.6,613.5V242.4c0-22.5,18.3-40.8,40.8-40.8h243.3c-10.4,18,28.3,29.5,28.3,51.8
	C263.8,275.8,274.5,313.4,285.1,331.5z"/>
<path class="st2" d="M402.8,241.9L203.2,444.2l-46-38.7l-88-74.1c10.6-18,21.3-55.7,21.3-78.1c0-22.3,38.7-33.8,28.3-51.8h243.3
	c22.2,0,40.2,17.7,40.7,39.7C402.8,241.5,402.8,241.7,402.8,241.9z"/>
<path class="st3" d="M402.8,598.2v14.1c0,21.2-16.1,38.6-36.8,40.6L178.3,467.6l45.4-46L328.6,525l5.8,5.7L402.8,598.2z"/>
<path class="st4" d="M273.5,372.4l-49.8,50.4l-45.4,46l-183,185.4h-3.1c-22.5,0-40.8-18.3-40.8-40.8l284.3-288.1
	C241,334.6,267.8,364.8,273.5,372.4z"/>
<path class="st4" d="M402.8,241.9L203.2,444.2L118.6,530c-5.3-9.1-32.1-39.4-37.8-46.9l49.8-50.4l26.7-27.1l18.7-19l182.5-184.9
	l0.5-0.5h3.1c22.3,0,40.5,17.9,40.7,40.2C402.8,241.5,402.8,241.7,402.8,241.9z"/>
<path class="st5" d="M57.9,368.8C22.1,368.8-7,339.6-7,303.8s29.1-64.9,64.9-64.9c17.3,0,33.6,6.8,45.9,19L88.8,273
	c-8.2-8.2-19.2-12.8-30.9-12.8c-24.1,0-43.6,19.6-43.6,43.6c0,24.1,19.6,43.6,43.6,43.6c20.4,0,37.6-14.1,42.3-33H57.9v-21.3h64.9
	v10.6C122.8,339.6,93.7,368.8,57.9,368.8z"/>
</svg>
